Biostatistikos pratybos
…
as_tibble(iris_small)
## # A tibble: 5 x 5
##   Sepal.Length Sepal.Width Petal.Length Petal.Width Species   
## *        <dbl>       <dbl>        <dbl>       <dbl> <fct>     
## 1          6           2.2          5           1.5 virginica 
## 2          6.8         3            5.5         2.1 virginica 
## 3          4.9         2.4          3.3         1   versicolor
## 4          7           3.2          4.7         1.4 versicolor
## 5          6.9         3.1          4.9         1.5 versicolor
Atspausdino kitaip. Skirtumas pasimato, kai duomenų lentelės didelės.

as_tibble(iris)
## # A tibble: 150 x 5
##    Sepal.Length Sepal.Width Petal.Length Petal.Width Species
##           <dbl>       <dbl>        <dbl>       <dbl> <fct>  
##  1          5.1         3.5          1.4         0.2 setosa 
##  2          4.9         3            1.4         0.2 setosa 
##  3          4.7         3.2          1.3         0.2 setosa 
##  4          4.6         3.1          1.5         0.2 setosa 
##  5          5           3.6          1.4         0.2 setosa 
##  6          5.4         3.9          1.7         0.4 setosa 
##  7          4.6         3.4          1.4         0.3 setosa 
##  8          5           3.4          1.5         0.2 setosa 
##  9          4.4         2.9          1.4         0.2 setosa 
## 10          4.9         3.1          1.5         0.1 setosa 
## # ... with 140 more rows
…
5.4.4 Eilučių sugrupavimas
Jei skaičiavimus norime atlikti grupių viduje, tada naudojame:
group_by() – eilučių grupavimas (vėliau skaičiavimai bus vykdomi kiekvienai grupei atskirai).
Jai priešinga komanda:
ungroup() – grupavimo panaikinimas.
Pačios savaime šios funkcijos nieko vertos. Tačiau labai vertingos kombinacijoje su kitomis funkcijomis, kurioms svarbu, ar yra grupavimas.

iris_gr <- group_by(iris, Species)
iris_gr
## # A tibble: 150 x 5
## # Groups:   Species [3]
##    Sepal.Length Sepal.Width Petal.Length Petal.Width Species
##           <dbl>       <dbl>        <dbl>       <dbl> <fct>  
##  1          5.1         3.5          1.4         0.2 setosa 
##  2          4.9         3            1.4         0.2 setosa 
##  3          4.7         3.2          1.3         0.2 setosa 
##  4          4.6         3.1          1.5         0.2 setosa 
##  5          5           3.6          1.4         0.2 setosa 
##  6          5.4         3.9          1.7         0.4 setosa 
##  7          4.6         3.4          1.4         0.3 setosa 
##  8          5           3.4          1.5         0.2 setosa 
##  9          4.4         2.9          1.4         0.2 setosa 
## 10          4.9         3.1          1.5         0.1 setosa 
## # ... with 140 more rows
…
